2015-08-04 09:16:14,468 INFO  [Log] **************************************************************************************** 
2015-08-04 09:16:14,469 INFO  [Log] **************************************************************************************** 
2015-08-04 09:16:14,469 INFO  [Log] $$$$$$$$$$$$$$$$$$$$$                 Framework_001       $$$$$$$$$$$$$$$$$$$$$$$$$ 
2015-08-04 09:16:14,469 INFO  [Log] **************************************************************************************** 
2015-08-04 09:16:14,469 INFO  [Log] **************************************************************************************** 
2015-08-04 09:16:15,289 INFO  [Log] Excel sheet opened 
2015-08-04 09:16:15,289 INFO  [Log] Total number of Row used return as < 4 >. 
2015-08-04 09:16:33,229 INFO  [Log] New driver instantiated 
2015-08-04 09:16:33,359 INFO  [Log] Implicit wait applied on the driver for 10 seconds 
2015-08-04 09:16:35,213 INFO  [Log] Web application launched successfully 
2015-08-04 09:16:35,484 INFO  [Log] My Account link is found on the Home Page 
2015-08-04 09:16:35,666 INFO  [Log] Click action is perfromed on My Account link 
2015-08-04 09:16:37,383 INFO  [Log] Username text box is found on the Login Page 
2015-08-04 09:16:37,562 INFO  [Log] sthseleniumcourse@gmail.com is entered in UserName text box 
2015-08-04 09:16:38,173 INFO  [Log] Password text box is found on the Login page 
2015-08-04 09:16:38,355 INFO  [Log] selenium is entered in Password text box 
2015-08-04 09:16:38,480 INFO  [Log] Submit button is found on the Login page 
2015-08-04 09:16:40,810 INFO  [Log] Click action is performed on Submit button 
2015-08-04 09:16:40,989 INFO  [Log] Log Out link is found on the Home Page 
2015-08-04 09:16:41,266 INFO  [Log] Log Out link is found on the Home Page 
2015-08-04 09:16:42,458 INFO  [Log] continue the logout button found 
2015-08-04 09:16:44,168 INFO  [Log] XXXXXXXXXXXXXXXXXXXXXXX             -E---N---D-             XXXXXXXXXXXXXXXXXXXXXX 
2015-08-04 09:16:44,168 INFO  [Log] X 
2015-08-04 09:16:44,168 INFO  [Log] X 
2015-08-04 09:16:44,168 INFO  [Log] X 
2015-08-04 09:16:44,168 INFO  [Log] X 
2015-08-04 09:17:57,814 INFO  [Log] **************************************************************************************** 
2015-08-04 09:17:57,815 INFO  [Log] **************************************************************************************** 
2015-08-04 09:17:57,815 INFO  [Log] $$$$$$$$$$$$$$$$$$$$$                 Framework_001       $$$$$$$$$$$$$$$$$$$$$$$$$ 
2015-08-04 09:17:57,815 INFO  [Log] **************************************************************************************** 
2015-08-04 09:17:57,815 INFO  [Log] **************************************************************************************** 
2015-08-04 09:17:58,618 INFO  [Log] Excel sheet opened 
2015-08-04 09:17:58,618 INFO  [Log] Total number of Row used return as < 4 >. 
2015-08-04 09:18:15,247 INFO  [Log] New driver instantiated 
2015-08-04 09:18:15,361 INFO  [Log] Implicit wait applied on the driver for 10 seconds 
2015-08-04 09:18:16,870 INFO  [Log] Web application launched successfully 
2015-08-04 09:18:17,150 INFO  [Log] My Account link is found on the Home Page 
2015-08-04 09:18:17,405 INFO  [Log] Click action is perfromed on My Account link 
2015-08-04 09:18:19,329 INFO  [Log] Username text box is found on the Login Page 
2015-08-04 09:18:19,504 INFO  [Log] sthseleniumcourse@gmail.com is entered in UserName text box 
2015-08-04 09:18:20,227 INFO  [Log] Password text box is found on the Login page 
2015-08-04 09:18:20,399 INFO  [Log] selenium is entered in Password text box 
2015-08-04 09:18:20,523 INFO  [Log] Submit button is found on the Login page 
2015-08-04 09:18:22,075 INFO  [Log] Click action is performed on Submit button 
2015-08-04 09:18:22,252 INFO  [Log] Log Out link is found on the Home Page 
2015-08-04 09:18:22,714 INFO  [Log] Log Out link is found on the Home Page 
2015-08-04 09:18:23,840 INFO  [Log] continue the logout button found 
2015-08-04 09:18:25,568 INFO  [Log] XXXXXXXXXXXXXXXXXXXXXXX             -E---N---D-             XXXXXXXXXXXXXXXXXXXXXX 
2015-08-04 09:18:25,568 INFO  [Log] X 
2015-08-04 09:18:25,568 INFO  [Log] X 
2015-08-04 09:18:25,568 INFO  [Log] X 
2015-08-04 09:18:25,568 INFO  [Log] X 
2015-08-04 09:18:25,603 INFO  [Log] **************************************************************************************** 
2015-08-04 09:18:25,603 INFO  [Log] **************************************************************************************** 
2015-08-04 09:18:25,603 INFO  [Log] $$$$$$$$$$$$$$$$$$$$$                 Framework_003       $$$$$$$$$$$$$$$$$$$$$$$$$ 
2015-08-04 09:18:25,603 INFO  [Log] **************************************************************************************** 
2015-08-04 09:18:25,603 INFO  [Log] **************************************************************************************** 
2015-08-04 09:18:25,658 INFO  [Log] Excel sheet opened 
2015-08-04 09:18:25,658 INFO  [Log] Total number of Row used return as < 4 >. 
2015-08-04 09:18:43,579 INFO  [Log] New driver instantiated 
2015-08-04 09:18:43,744 INFO  [Log] Implicit wait applied on the driver for 10 seconds 
2015-08-04 09:18:45,197 INFO  [Log] Web application launched successfully 
2015-08-04 09:18:45,444 INFO  [Log] My Account link is found on the Home Page 
2015-08-04 09:18:45,671 INFO  [Log] Click action is perfromed on My Account link 
2015-08-04 09:18:47,206 INFO  [Log] Username text box is found on the Login Page 
2015-08-04 09:18:47,384 INFO  [Log] sthseleniumcourse@gmail.com is entered in UserName text box 
2015-08-04 09:18:48,195 INFO  [Log] Password text box is found on the Login page 
2015-08-04 09:18:48,369 INFO  [Log] selenium@123 is entered in Password text box 
2015-08-04 09:18:48,471 INFO  [Log] Submit button is found on the Login page 
2015-08-04 09:18:49,656 INFO  [Log] Click action is performed on Submit button 
2015-08-04 09:19:50,014 ERROR [Log] view or change my account link not found 
2015-08-04 09:19:50,876 ERROR [Log] Unable to locate element: {"method":"link text","selector":"View or change my account information."}
Command duration or timeout: 60.33 seconds
For documentation on this error, please visit: http://seleniumhq.org/exceptions/no_such_element.html
Build info: version: '2.45.0', revision: '32a636c', time: '2015-03-05 22:01:35'
System info: host: 'home-PC', ip: '192.168.0.101', os.name: 'Windows 7', os.arch: 'x86', os.version: '6.1', java.version: '1.8.0_45'
Driver info: org.openqa.selenium.firefox.FirefoxDriver
Capabilities [{applicationCacheEnabled=true, rotatable=false, handlesAlerts=true, databaseEnabled=true, version=38.0.1, platform=WINDOWS, nativeEvents=false, acceptSslCerts=true, webStorageEnabled=true, locationContextEnabled=true, browserName=firefox, takesScreenshot=true, javascriptEnabled=true, cssSelectorsEnabled=true}]
Session ID: d3496979-2483-4703-aad6-3c4879eb2e89
*** Element info: {Using=link text, value=View or change my account information.} 
2015-08-04 09:19:50,882 INFO  [Log] XXXXXXXXXXXXXXXXXXXXXXX             -E---N---D-             XXXXXXXXXXXXXXXXXXXXXX 
2015-08-04 09:19:50,882 INFO  [Log] X 
2015-08-04 09:19:50,882 INFO  [Log] X 
2015-08-04 09:19:50,882 INFO  [Log] X 
2015-08-04 09:19:50,882 INFO  [Log] X 
2015-08-04 09:19:51,015 INFO  [Log] **************************************************************************************** 
2015-08-04 09:19:51,015 INFO  [Log] **************************************************************************************** 
2015-08-04 09:19:51,015 INFO  [Log] $$$$$$$$$$$$$$$$$$$$$                 Framework_004       $$$$$$$$$$$$$$$$$$$$$$$$$ 
2015-08-04 09:19:51,015 INFO  [Log] **************************************************************************************** 
2015-08-04 09:19:51,015 INFO  [Log] **************************************************************************************** 
2015-08-04 09:19:51,049 INFO  [Log] Excel sheet opened 
2015-08-04 09:19:51,049 INFO  [Log] Total number of Row used return as < 4 >. 
2015-08-04 09:20:08,937 INFO  [Log] New driver instantiated 
2015-08-04 09:20:09,053 INFO  [Log] Implicit wait applied on the driver for 10 seconds 
2015-08-04 09:20:10,593 INFO  [Log] Web application launched successfully 
2015-08-04 09:20:10,819 INFO  [Log] textbox keywords is found on the Home Page 
2015-08-04 09:20:11,706 INFO  [Log] Button Quick Find is found on the Home Page 
2015-08-04 09:20:13,160 INFO  [Log] Click action is performed on quick find button 
2015-08-04 09:20:13,258 INFO  [Log] Product found on page, search is complete 
2015-08-04 09:20:13,626 INFO  [Log] XXXXXXXXXXXXXXXXXXXXXXX             -E---N---D-             XXXXXXXXXXXXXXXXXXXXXX 
2015-08-04 09:20:13,626 INFO  [Log] X 
2015-08-04 09:20:13,626 INFO  [Log] X 
2015-08-04 09:20:13,626 INFO  [Log] X 
2015-08-04 09:20:13,626 INFO  [Log] X 
2015-08-04 09:21:51,213 INFO  [Log] **************************************************************************************** 
2015-08-04 09:21:51,214 INFO  [Log] **************************************************************************************** 
2015-08-04 09:21:51,214 INFO  [Log] $$$$$$$$$$$$$$$$$$$$$                 Framework_001       $$$$$$$$$$$$$$$$$$$$$$$$$ 
2015-08-04 09:21:51,214 INFO  [Log] **************************************************************************************** 
2015-08-04 09:21:51,214 INFO  [Log] **************************************************************************************** 
2015-08-04 09:21:52,029 INFO  [Log] Excel sheet opened 
2015-08-04 09:21:52,030 INFO  [Log] Total number of Row used return as < 4 >. 
2015-08-04 09:22:07,819 INFO  [Log] New driver instantiated 
2015-08-04 09:22:07,948 INFO  [Log] Implicit wait applied on the driver for 10 seconds 
2015-08-04 09:22:09,509 INFO  [Log] Web application launched successfully 
2015-08-04 09:22:09,729 INFO  [Log] My Account link is found on the Home Page 
2015-08-04 09:22:11,635 INFO  [Log] Click action is perfromed on My Account link 
2015-08-04 09:22:11,731 INFO  [Log] Username text box is found on the Login Page 
2015-08-04 09:22:11,894 INFO  [Log] sthseleniumcourse@gmail.com is entered in UserName text box 
2015-08-04 09:22:12,551 INFO  [Log] Password text box is found on the Login page 
2015-08-04 09:22:12,741 INFO  [Log] selenium is entered in Password text box 
2015-08-04 09:22:12,875 INFO  [Log] Submit button is found on the Login page 
2015-08-04 09:22:14,765 INFO  [Log] Click action is performed on Submit button 
2015-08-04 09:22:14,944 INFO  [Log] Log Out link is found on the Home Page 
2015-08-04 09:22:15,222 INFO  [Log] Log Out link is found on the Home Page 
2015-08-04 09:22:16,434 INFO  [Log] continue the logout button found 
2015-08-04 09:22:18,074 INFO  [Log] XXXXXXXXXXXXXXXXXXXXXXX             -E---N---D-             XXXXXXXXXXXXXXXXXXXXXX 
2015-08-04 09:22:18,074 INFO  [Log] X 
2015-08-04 09:22:18,074 INFO  [Log] X 
2015-08-04 09:22:18,074 INFO  [Log] X 
2015-08-04 09:22:18,075 INFO  [Log] X 
2015-08-04 09:22:18,169 INFO  [Log] **************************************************************************************** 
2015-08-04 09:22:18,169 INFO  [Log] **************************************************************************************** 
2015-08-04 09:22:18,169 INFO  [Log] $$$$$$$$$$$$$$$$$$$$$                 Framework_003       $$$$$$$$$$$$$$$$$$$$$$$$$ 
2015-08-04 09:22:18,169 INFO  [Log] **************************************************************************************** 
2015-08-04 09:22:18,169 INFO  [Log] **************************************************************************************** 
2015-08-04 09:22:18,231 INFO  [Log] Excel sheet opened 
2015-08-04 09:22:18,231 INFO  [Log] Total number of Row used return as < 4 >. 
2015-08-04 09:22:34,478 INFO  [Log] New driver instantiated 
2015-08-04 09:22:34,604 INFO  [Log] Implicit wait applied on the driver for 10 seconds 
2015-08-04 09:22:36,326 INFO  [Log] Web application launched successfully 
2015-08-04 09:22:36,555 INFO  [Log] My Account link is found on the Home Page 
2015-08-04 09:22:38,614 INFO  [Log] Click action is perfromed on My Account link 
2015-08-04 09:22:38,815 INFO  [Log] Username text box is found on the Login Page 
2015-08-04 09:22:39,000 INFO  [Log] sthseleniumcourse@gmail.com is entered in UserName text box 
2015-08-04 09:22:39,667 INFO  [Log] Password text box is found on the Login page 
2015-08-04 09:22:39,824 INFO  [Log] selenium is entered in Password text box 
2015-08-04 09:22:39,941 INFO  [Log] Submit button is found on the Login page 
2015-08-04 09:22:41,711 INFO  [Log] Click action is performed on Submit button 
2015-08-04 09:22:41,928 INFO  [Log] view or change my account link found 
2015-08-04 09:22:43,095 INFO  [Log] lastname text box found 
2015-08-04 09:22:43,285 INFO  [Log] lastname text box found 
2015-08-04 09:22:43,506 INFO  [Log] Continue button found 
2015-08-04 09:22:45,246 INFO  [Log] verification found 
2015-08-04 09:22:45,494 INFO  [Log] verification found 
2015-08-04 09:22:45,587 INFO  [Log]  Your account has been successfully updated. 
2015-08-04 09:22:45,671 INFO  [Log] verification found 
2015-08-04 09:22:45,846 INFO  [Log] The change profile last name hold true. 
2015-08-04 09:22:45,994 INFO  [Log] Log Out link is found on the Home Page 
2015-08-04 09:22:46,284 INFO  [Log] Log Out link is found on the Home Page 
2015-08-04 09:22:47,581 INFO  [Log] continue the logout button found 
2015-08-04 09:22:49,164 INFO  [Log] XXXXXXXXXXXXXXXXXXXXXXX             -E---N---D-             XXXXXXXXXXXXXXXXXXXXXX 
2015-08-04 09:22:49,164 INFO  [Log] X 
2015-08-04 09:22:49,164 INFO  [Log] X 
2015-08-04 09:22:49,164 INFO  [Log] X 
2015-08-04 09:22:49,166 INFO  [Log] X 
2015-08-04 09:22:49,311 INFO  [Log] **************************************************************************************** 
2015-08-04 09:22:49,311 INFO  [Log] **************************************************************************************** 
2015-08-04 09:22:49,311 INFO  [Log] $$$$$$$$$$$$$$$$$$$$$                 Framework_004       $$$$$$$$$$$$$$$$$$$$$$$$$ 
2015-08-04 09:22:49,312 INFO  [Log] **************************************************************************************** 
2015-08-04 09:22:49,312 INFO  [Log] **************************************************************************************** 
2015-08-04 09:22:49,349 INFO  [Log] Excel sheet opened 
2015-08-04 09:22:49,349 INFO  [Log] Total number of Row used return as < 4 >. 
2015-08-04 09:23:05,601 INFO  [Log] New driver instantiated 
2015-08-04 09:23:05,734 INFO  [Log] Implicit wait applied on the driver for 10 seconds 
2015-08-04 09:23:07,300 INFO  [Log] Web application launched successfully 
2015-08-04 09:23:07,533 INFO  [Log] textbox keywords is found on the Home Page 
2015-08-04 09:23:08,321 INFO  [Log] Button Quick Find is found on the Home Page 
2015-08-04 09:23:09,493 INFO  [Log] Click action is performed on quick find button 
2015-08-04 09:23:09,642 INFO  [Log] Product found on page, search is complete 
2015-08-04 09:23:10,036 INFO  [Log] XXXXXXXXXXXXXXXXXXXXXXX             -E---N---D-             XXXXXXXXXXXXXXXXXXXXXX 
2015-08-04 09:23:10,036 INFO  [Log] X 
2015-08-04 09:23:10,036 INFO  [Log] X 
2015-08-04 09:23:10,036 INFO  [Log] X 
2015-08-04 09:23:10,036 INFO  [Log] X 
